%YAML 1.1
%TAG !u! tag:unity3d.com,2011:
--- !u!1 &100000
GameObject:
  m_ObjectHideFlags: 0
  m_PrefabParentObject: {fileID: 0}
  m_PrefabInternal: {fileID: 100100000}
  serializedVersion: 4
  m_Component:
  - 4: {fileID: 400000}
  - 114: {fileID: 11400000}
  m_Layer: 0
  m_Name: ItemSprites
  m_TagString: Untagged
  m_Icon: {fileID: 0}
  m_NavMeshLayer: 0
  m_StaticEditorFlags: 0
  m_IsActive: 1
--- !u!4 &400000
Transform:
  m_ObjectHideFlags: 1
  m_PrefabParentObject: {fileID: 0}
  m_PrefabInternal: {fileID: 100100000}
  m_GameObject: {fileID: 100000}
  m_LocalRotation: {x: 0, y: 0, z: 0, w: 1}
  m_LocalPosition: {x: 0, y: 0, z: 0}
  m_LocalScale: {x: 1, y: 1, z: 1}
  m_Children: []
  m_Father: {fileID: 0}
  m_RootOrder: 0
--- !u!114 &11400000
MonoBehaviour:
  m_ObjectHideFlags: 1
  m_PrefabParentObject: {fileID: 0}
  m_PrefabInternal: {fileID: 100100000}
  m_GameObject: {fileID: 100000}
  m_Enabled: 1
  m_EditorHideFlags: 0
  m_Script: {fileID: 11500000, guid: d546f34a90531a14eaba82a43b05b86b, type: 3}
  m_Name: 
  m_EditorClassIdentifier: 
  version: 3
  materialIdsValid: 1
  needMaterialInstance: 0
  spriteDefinitions:
  - name: 1_head_aviators_slothRun2
    boundsData:
    - {x: .112903208, y: .0967741758, z: 0}
    - {x: 1.38709664, y: .90322578, z: 0}
    untrimmedBoundsData:
    - {x: 0, y: 0, z: 0}
    - {x: 2.06451607, y: 2.06451607, z: 0}
    texelSize: {x: .0161290318, y: .0161290318}
    positions:
    - {x: -.580645144, y: -.354838699, z: 0}
    - {x: .806451559, y: -.354838699, z: 0}
    - {x: -.580645144, y: .548387051, z: 0}
    - {x: .806451559, y: .548387051, z: 0}
    normals: []
    tangents: []
    uvs:
    - {x: .169923827, y: .664063454}
    - {x: .337888658, y: .664063454}
    - {x: .169923827, y: .718749046}
    - {x: .337888658, y: .718749046}
    indices: 000000000300000001000000020000000300000000000000
    material: {fileID: 2100000, guid: c63bd21103efe4ebeabdb9afac59e4f8, type: 2}
    materialId: 0
    sourceTextureGUID: 243764c7cfab34488b7481ba7eef563d
    extractRegion: 0
    regionX: 0
    regionY: 0
    regionW: 0
    regionH: 0
    flipped: 0
    complexGeometry: 0
    physicsEngine: 0
    colliderType: 0
    customColliders: []
    colliderVertices: []
    colliderIndicesFwd: 
    colliderIndicesBack: 
    colliderConvex: 0
    colliderSmoothSphereCollisions: 0
    polygonCollider2D: []
    edgeCollider2D: []
    attachPoints: []
  - name: 1_head_aviators_slothLand
    boundsData:
    - {x: .112903208, y: -.145161286, z: 0}
    - {x: 1.38709664, y: 1, z: 0}
    untrimmedBoundsData:
    - {x: 0, y: 0, z: 0}
    - {x: 2.06451607, y: 2.06451607, z: 0}
    texelSize: {x: .0161290318, y: .0161290318}
    positions:
    - {x: -.580645144, y: -.645161271, z: 0}
    - {x: .806451559, y: -.645161271, z: 0}
    - {x: -.580645144, y: .354838699, z: 0}
    - {x: .806451559, y: .354838699, z: 0}
    normals: []
    tangents: []
    uvs:
    - {x: .00390820298, y: .607422829}
    - {x: .00390820298, y: .691405296}
    - {x: .124998048, y: .607422829}
    - {x: .124998048, y: .691405296}
    indices: 000000000300000001000000020000000300000000000000
    material: {fileID: 2100000, guid: c63bd21103efe4ebeabdb9afac59e4f8, type: 2}
    materialId: 0
    sourceTextureGUID: 4d142fd35f427403c890f5fe49d0d400
    extractRegion: 0
    regionX: 0
    regionY: 0
    regionW: 0
    regionH: 0
    flipped: 1
    complexGeometry: 0
    physicsEngine: 0
    colliderType: 0
    customColliders: []
    colliderVertices: []
    colliderIndicesFwd: 
    colliderIndicesBack: 
    colliderConvex: 0
    colliderSmoothSphereCollisions: 0
    polygonCollider2D: []
    edgeCollider2D: []
    attachPoints: []
  - name: 1_head_aviators_slothJump2
    boundsData:
    - {x: -.0564516187, y: 0, z: 0}
    - {x: 1.04838705, y: 1.4193548, z: 0}
    untrimmedBoundsData:
    - {x: 0, y: 0, z: 0}
    - {x: 2.06451607, y: 2.06451607, z: 0}
    texelSize: {x: .0161290318, y: .0161290318}
    positions:
    - {x: -.580645144, y: -.709677398, z: 0}
    - {x: .467741907, y: -.709677398, z: 0}
    - {x: -.580645144, y: .709677398, z: 0}
    - {x: .467741907, y: .709677398, z: 0}
    normals: []
    tangents: []
    uvs:
    - {x: .00390820298, y: .517579079}
    - {x: .130857423, y: .517579079}
    - {x: .00390820298, y: .603514671}
    - {x: .130857423, y: .603514671}
    indices: 000000000300000001000000020000000300000000000000
    material: {fileID: 2100000, guid: c63bd21103efe4ebeabdb9afac59e4f8, type: 2}
    materialId: 0
    sourceTextureGUID: 62430a5b3ceb3422199886f6e4e0ff77
    extractRegion: 0
    regionX: 0
    regionY: 0
    regionW: 0
    regionH: 0
    flipped: 0
    complexGeometry: 0
    physicsEngine: 0
    colliderType: 0
    customColliders: []
    colliderVertices: []
    colliderIndicesFwd: 
    colliderIndicesBack: 
    colliderConvex: 0
    colliderSmoothSphereCollisions: 0
    polygonCollider2D: []
    edgeCollider2D: []
    attachPoints: []
  - name: 1_head_aviators_slothJump4
    boundsData:
    - {x: -.0967741907, y: .370967716, z: 0}
    - {x: 1.45161295, y: .870967686, z: 0}
    untrimmedBoundsData:
    - {x: 0, y: 0, z: 0}
    - {x: 2.06451607, y: 2.06451607, z: 0}
    texelSize: {x: .0161290318, y: .0161290318}
    positions:
    - {x: -.822580636, y: -.0645161271, z: 0}
    - {x: .629032254, y: -.0645161271, z: 0}
    - {x: -.822580636, y: .806451559, z: 0}
    - {x: .629032254, y: .806451559, z: 0}
    normals: []
    tangents: []
    uvs:
    - {x: .132814452, y: .607422829}
    - {x: .308591783, y: .607422829}
    - {x: .132814452, y: .660155296}
    - {x: .308591783, y: .660155296}
    indices: 000000000300000001000000020000000300000000000000
    material: {fileID: 2100000, guid: c63bd21103efe4ebeabdb9afac59e4f8, type: 2}
    materialId: 0
    sourceTextureGUID: 62dd954bdb6974a37ae835594fe2ee03
    extractRegion: 0
    regionX: 0
    regionY: 0
    regionW: 0
    regionH: 0
    flipped: 0
    complexGeometry: 0
    physicsEngine: 0
    colliderType: 0
    customColliders: []
    colliderVertices: []
    colliderIndicesFwd: 
    colliderIndicesBack: 
    colliderConvex: 0
    colliderSmoothSphereCollisions: 0
    polygonCollider2D: []
    edgeCollider2D: []
    attachPoints: []
  - name: 1_head_aviators_slothJump5
    boundsData:
    - {x: 0, y: .0564516187, z: 0}
    - {x: 1.4193548, y: .758064508, z: 0}
    untrimmedBoundsData:
    - {x: 0, y: 0, z: 0}
    - {x: 2.06451607, y: 2.06451607, z: 0}
    texelSize: {x: .0161290318, y: .0161290318}
    positions:
    - {x: -.709677398, y: -.322580636, z: 0}
    - {x: .709677398, y: -.322580636, z: 0}
    - {x: -.709677398, y: .435483873, z: 0}
    - {x: .709677398, y: .435483873, z: 0}
    normals: []
    tangents: []
    uvs:
    - {x: .892580092, y: .481446296}
    - {x: .892580092, y: .567381859}
    - {x: .984373033, y: .481446296}
    - {x: .984373033, y: .567381859}
    indices: 000000000300000001000000020000000300000000000000
    material: {fileID: 2100000, guid: c63bd21103efe4ebeabdb9afac59e4f8, type: 2}
    materialId: 0
    sourceTextureGUID: 79a50402c70564c7394db4646f02991e
    extractRegion: 0
    regionX: 0
    regionY: 0
    regionW: 0
    regionH: 0
    flipped: 1
    complexGeometry: 0
    physicsEngine: 0
    colliderType: 0
    customColliders: []
    colliderVertices: []
    colliderIndicesFwd: 
    colliderIndicesBack: 
    colliderConvex: 0
    colliderSmoothSphereCollisions: 0
    polygonCollider2D: []
    edgeCollider2D: []
    attachPoints: []
  - name: 1_head_aviators_slothIdle1
    boundsData:
    - {x: .00806450844, y: -.0241935551, z: 0}
    - {x: 1.40322578, y: .725806415, z: 0}
    untrimmedBoundsData:
    - {x: 0, y: 0, z: 0}
    - {x: 2.06451607, y: 2.06451607, z: 0}
    texelSize: {x: .0161290318, y: .0161290318}
    positions:
    - {x: -.693548381, y: -.387096763, z: 0}
    - {x: .709677398, y: -.387096763, z: 0}
    - {x: -.693548381, y: .338709652, z: 0}
    - {x: .709677398, y: .338709652, z: 0}
    normals: []
    tangents: []
    uvs:
    - {x: .892580092, y: .660157204}
    - {x: .892580092, y: .745116234}
    - {x: .980466783, y: .660157204}
    - {x: .980466783, y: .745116234}
    indices: 000000000300000001000000020000000300000000000000
    material: {fileID: 2100000, guid: c63bd21103efe4ebeabdb9afac59e4f8, type: 2}
    materialId: 0
    sourceTextureGUID: 8413a2d7171e24711a6297195d1f3046
    extractRegion: 0
    regionX: 0
    regionY: 0
    regionW: 0
    regionH: 0
    flipped: 1
    complexGeometry: 0
    physicsEngine: 0
    colliderType: 0
    customColliders: []
    colliderVertices: []
    colliderIndicesFwd: 
    colliderIndicesBack: 
    colliderConvex: 0
    colliderSmoothSphereCollisions: 0
    polygonCollider2D: []
    edgeCollider2D: []
    attachPoints: []
  - name: 1_head_aviators_slothJump3
    boundsData:
    - {x: .225806445, y: .306451619, z: 0}
    - {x: 1.38709664, y: .90322578, z: 0}
    untrimmedBoundsData:
    - {x: 0, y: 0, z: 0}
    - {x: 2.06451607, y: 2.06451607, z: 0}
    texelSize: {x: .0161290318, y: .0161290318}
    positions:
    - {x: -.467741907, y: -.145161286, z: 0}
    - {x: .919354796, y: -.145161286, z: 0}
    - {x: -.467741907, y: .758064508, z: 0}
    - {x: .919354796, y: .758064508, z: 0}
    normals: []
    tangents: []
    uvs:
    - {x: .169923827, y: .664063454}
    - {x: .337888658, y: .664063454}
    - {x: .169923827, y: .718749046}
    - {x: .337888658, y: .718749046}
    indices: 000000000300000001000000020000000300000000000000
    material: {fileID: 2100000, guid: c63bd21103efe4ebeabdb9afac59e4f8, type: 2}
    materialId: 0
    sourceTextureGUID: 8c8a47011b7f04f9db8873689eb80c1e
    extractRegion: 0
    regionX: 0
    regionY: 0
    regionW: 0
    regionH: 0
    flipped: 0
    complexGeometry: 0
    physicsEngine: 0
    colliderType: 0
    customColliders: []
    colliderVertices: []
    colliderIndicesFwd: 
    colliderIndicesBack: 
    colliderConvex: 0
    colliderSmoothSphereCollisions: 0
    polygonCollider2D: []
    edgeCollider2D: []
    attachPoints: []
  - name: 1_head_aviators_slothRun1
    boundsData:
    - {x: .0725806355, y: .137096763, z: 0}
    - {x: 1.30645156, y: .758064508, z: 0}
    untrimmedBoundsData:
    - {x: 0, y: 0, z: 0}
    - {x: 2.06451607, y: 2.06451607, z: 0}
    texelSize: {x: .0161290318, y: .0161290318}
    positions:
    - {x: -.580645144, y: -.241935477, z: 0}
    - {x: .725806415, y: -.241935477, z: 0}
    - {x: -.580645144, y: .516129017, z: 0}
    - {x: .725806415, y: .516129017, z: 0}
    normals: []
    tangents: []
    uvs:
    - {x: .00390820298, y: .695313454}
    - {x: .162107423, y: .695313454}
    - {x: .00390820298, y: .741209984}
    - {x: .162107423, y: .741209984}
    indices: 000000000300000001000000020000000300000000000000
    material: {fileID: 2100000, guid: c63bd21103efe4ebeabdb9afac59e4f8, type: 2}
    materialId: 0
    sourceTextureGUID: a475fdcab28344128855bc174bb0a366
    extractRegion: 0
    regionX: 0
    regionY: 0
    regionW: 0
    regionH: 0
    flipped: 0
    complexGeometry: 0
    physicsEngine: 0
    colliderType: 0
    customColliders: []
    colliderVertices: []
    colliderIndicesFwd: 
    colliderIndicesBack: 
    colliderConvex: 0
    colliderSmoothSphereCollisions: 0
    polygonCollider2D: []
    edgeCollider2D: []
    attachPoints: []
  - name: 1_head_aviators_slothIdle2
    boundsData:
    - {x: .0403226018, y: .0564516187, z: 0}
    - {x: 1.40322578, y: .758064508, z: 0}
    untrimmedBoundsData:
    - {x: 0, y: 0, z: 0}
    - {x: 2.06451607, y: 2.06451607, z: 0}
    texelSize: {x: .0161290318, y: .0161290318}
    positions:
    - {x: -.661290288, y: -.322580636, z: 0}
    - {x: .741935492, y: -.322580636, z: 0}
    - {x: -.661290288, y: .435483873, z: 0}
    - {x: .741935492, y: .435483873, z: 0}
    normals: []
    tangents: []
    uvs:
    - {x: .892580092, y: .571290016}
    - {x: .892580092, y: .656249046}
    - {x: .984373033, y: .571290016}
    - {x: .984373033, y: .656249046}
    indices: 000000000300000001000000020000000300000000000000
    material: {fileID: 2100000, guid: c63bd21103efe4ebeabdb9afac59e4f8, type: 2}
    materialId: 0
    sourceTextureGUID: a8f4b6ff7268146eb8559e626366ba64
    extractRegion: 0
    regionX: 0
    regionY: 0
    regionW: 0
    regionH: 0
    flipped: 1
    complexGeometry: 0
    physicsEngine: 0
    colliderType: 0
    customColliders: []
    colliderVertices: []
    colliderIndicesFwd: 
    colliderIndicesBack: 
    colliderConvex: 0
    colliderSmoothSphereCollisions: 0
    polygonCollider2D: []
    edgeCollider2D: []
    attachPoints: []
  - name: 1_head_aviators_slothJump6
    boundsData:
    - {x: .0322580636, y: -.080645144, z: 0}
    - {x: 1.38709664, y: .90322578, z: 0}
    untrimmedBoundsData:
    - {x: 0, y: 0, z: 0}
    - {x: 2.06451607, y: 2.06451607, z: 0}
    texelSize: {x: .0161290318, y: .0161290318}
    positions:
    - {x: -.661290288, y: -.532258034, z: 0}
    - {x: .725806415, y: -.532258034, z: 0}
    - {x: -.661290288, y: .370967746, z: 0}
    - {x: .725806415, y: .370967746, z: 0}
    normals: []
    tangents: []
    uvs:
    - {x: .138673827, y: .517579079}
    - {x: .138673827, y: .601561546}
    - {x: .248044923, y: .517579079}
    - {x: .248044923, y: .601561546}
    indices: 000000000300000001000000020000000300000000000000
    material: {fileID: 2100000, guid: c63bd21103efe4ebeabdb9afac59e4f8, type: 2}
    materialId: 0
    sourceTextureGUID: cae1a494228a54acb99b3cac307733d5
    extractRegion: 0
    regionX: 0
    regionY: 0
    regionW: 0
    regionH: 0
    flipped: 1
    complexGeometry: 0
    physicsEngine: 0
    colliderType: 0
    customColliders: []
    colliderVertices: []
    colliderIndicesFwd: 
    colliderIndicesBack: 
    colliderConvex: 0
    colliderSmoothSphereCollisions: 0
    polygonCollider2D: []
    edgeCollider2D: []
    attachPoints: []
  - name: 1_head_aviators_slothJump1
    boundsData:
    - {x: .0322580636, y: -.112903237, z: 0}
    - {x: 1.38709664, y: .90322578, z: 0}
    untrimmedBoundsData:
    - {x: 0, y: 0, z: 0}
    - {x: 2.06451607, y: 2.06451607, z: 0}
    texelSize: {x: .0161290318, y: .0161290318}
    positions:
    - {x: -.661290288, y: -.564516127, z: 0}
    - {x: .725806415, y: -.564516127, z: 0}
    - {x: -.661290288, y: .338709652, z: 0}
    - {x: .725806415, y: .338709652, z: 0}
    normals: []
    tangents: []
    uvs:
    - {x: .169923827, y: .664063454}
    - {x: .337888658, y: .664063454}
    - {x: .169923827, y: .718749046}
    - {x: .337888658, y: .718749046}
    indices: 000000000300000001000000020000000300000000000000
    material: {fileID: 2100000, guid: c63bd21103efe4ebeabdb9afac59e4f8, type: 2}
    materialId: 0
    sourceTextureGUID: e54af9522fd0a4273862406db03cbeb8
    extractRegion: 0
    regionX: 0
    regionY: 0
    regionW: 0
    regionH: 0
    flipped: 0
    complexGeometry: 0
    physicsEngine: 0
    colliderType: 0
    customColliders: []
    colliderVertices: []
    colliderIndicesFwd: 
    colliderIndicesBack: 
    colliderConvex: 0
    colliderSmoothSphereCollisions: 0
    polygonCollider2D: []
    edgeCollider2D: []
    attachPoints: []
  - name: SantaHat_12
    boundsData:
    - {x: 0, y: .040322572, z: 0}
    - {x: 3.70967722, y: 2.08064508, z: 0}
    untrimmedBoundsData:
    - {x: 0, y: 0, z: 0}
    - {x: 4.12903214, y: 2.16129017, z: 0}
    texelSize: {x: .0161290318, y: .0161290318}
    positions:
    - {x: -1.85483861, y: -.99999994, z: 0}
    - {x: 1.85483861, y: -.99999994, z: 0}
    - {x: -1.85483861, y: 1.08064508, z: 0}
    - {x: 1.85483861, y: 1.08064508, z: 0}
    normals: []
    tangents: []
    uvs:
    - {x: .00390820298, y: .165040046}
    - {x: .453123033, y: .165040046}
    - {x: .00390820298, y: .291014642}
    - {x: .453123033, y: .291014642}
    indices: 000000000300000001000000020000000300000000000000
    material: {fileID: 2100000, guid: c63bd21103efe4ebeabdb9afac59e4f8, type: 2}
    materialId: 0
    sourceTextureGUID: 136568e28f68b49629d3f2a208adb0b2
    extractRegion: 0
    regionX: 0
    regionY: 0
    regionW: 0
    regionH: 0
    flipped: 0
    complexGeometry: 0
    physicsEngine: 0
    colliderType: 0
    customColliders: []
    colliderVertices: []
    colliderIndicesFwd: 
    colliderIndicesBack: 
    colliderConvex: 0
    colliderSmoothSphereCollisions: 0
    polygonCollider2D: []
    edgeCollider2D: []
    attachPoints: []
  - name: SantaHat_11
    boundsData:
    - {x: -.0322580338, y: -.0483870804, z: 0}
    - {x: 3.87096763, y: 1.87096763, z: 0}
    untrimmedBoundsData:
    - {x: 0, y: 0, z: 0}
    - {x: 4.12903214, y: 2.16129017, z: 0}
    texelSize: {x: .0161290318, y: .0161290318}
    positions:
    - {x: -1.96774185, y: -.983870924, z: 0}
    - {x: 1.90322578, y: -.983870924, z: 0}
    - {x: -1.96774185, y: .887096763, z: 0}
    - {x: 1.90322578, y: .887096763, z: 0}
    normals: []
    tangents: []
    uvs:
    - {x: .751955092, y: .243165046}
    - {x: .751955092, y: .477538079}
    - {x: .978513658, y: .243165046}
    - {x: .978513658, y: .477538079}
    indices: 000000000300000001000000020000000300000000000000
    material: {fileID: 2100000, guid: c63bd21103efe4ebeabdb9afac59e4f8, type: 2}
    materialId: 0
    sourceTextureGUID: 33a67aea6150643b79059e56b75d7aa1
    extractRegion: 0
    regionX: 0
    regionY: 0
    regionW: 0
    regionH: 0
    flipped: 1
    complexGeometry: 0
    physicsEngine: 0
    colliderType: 0
    customColliders: []
    colliderVertices: []
    colliderIndicesFwd: 
    colliderIndicesBack: 
    colliderConvex: 0
    colliderSmoothSphereCollisions: 0
    polygonCollider2D: []
    edgeCollider2D: []
    attachPoints: []
  - name: SantaHat_10
    boundsData:
    - {x: .00806450844, y: .04838714, z: 0}
    - {x: 3.72580647, y: 1.64516115, z: 0}
    untrimmedBoundsData:
    - {x: 0, y: 0, z: 0}
    - {x: 4.51612902, y: 2.16129017, z: 0}
    texelSize: {x: .0161290318, y: .0161290318}
    positions:
    - {x: -1.85483873, y: -.774193466, z: 0}
    - {x: 1.87096775, y: -.774193466, z: 0}
    - {x: -1.85483873, y: .870967746, z: 0}
    - {x: 1.87096775, y: .870967746, z: 0}
    normals: []
    tangents: []
    uvs:
    - {x: .00390820298, y: .749024391}
    - {x: .00390820298, y: .974608421}
    - {x: .203123048, y: .749024391}
    - {x: .203123048, y: .974608421}
    indices: 000000000300000001000000020000000300000000000000
    material: {fileID: 2100000, guid: c63bd21103efe4ebeabdb9afac59e4f8, type: 2}
    materialId: 0
    sourceTextureGUID: 3c8d64479c55a4e12be957c8058bd7bd
    extractRegion: 0
    regionX: 0
    regionY: 0
    regionW: 0
    regionH: 0
    flipped: 1
    complexGeometry: 0
    physicsEngine: 0
    colliderType: 0
    customColliders: []
    colliderVertices: []
    colliderIndicesFwd: 
    colliderIndicesBack: 
    colliderConvex: 0
    colliderSmoothSphereCollisions: 0
    polygonCollider2D: []
    edgeCollider2D: []
    attachPoints: []
  - name: SantaHat_9
    boundsData:
    - {x: -.0483871698, y: .040322572, z: 0}
    - {x: 4.41935444, y: 2.08064508, z: 0}
    untrimmedBoundsData:
    - {x: 0, y: 0, z: 0}
    - {x: 4.51612902, y: 2.16129017, z: 0}
    texelSize: {x: .0161290318, y: .0161290318}
    positions:
    - {x: -2.25806451, y: -.99999994, z: 0}
    - {x: 2.16129017, y: -.99999994, z: 0}
    - {x: -2.25806451, y: 1.08064508, z: 0}
    - {x: 2.16129017, y: 1.08064508, z: 0}
    normals: []
    tangents: []
    uvs:
    - {x: .492189467, y: .00195410149}
    - {x: .492189467, y: .269530267}
    - {x: .744138658, y: .00195410149}
    - {x: .744138658, y: .269530267}
    indices: 000000000300000001000000020000000300000000000000
    material: {fileID: 2100000, guid: c63bd21103efe4ebeabdb9afac59e4f8, type: 2}
    materialId: 0
    sourceTextureGUID: 42a82fac708914c009915ea1bb39f048
    extractRegion: 0
    regionX: 0
    regionY: 0
    regionW: 0
    regionH: 0
    flipped: 1
    complexGeometry: 0
    physicsEngine: 0
    colliderType: 0
    customColliders: []
    colliderVertices: []
    colliderIndicesFwd: 
    colliderIndicesBack: 
    colliderConvex: 0
    colliderSmoothSphereCollisions: 0
    polygonCollider2D: []
    edgeCollider2D: []
    attachPoints: []
  - name: SantaHat_5
    boundsData:
    - {x: -.0322580934, y: .137096763, z: 0}
    - {x: 3.96774197, y: 1.79032254, z: 0}
    untrimmedBoundsData:
    - {x: 0, y: 0, z: 0}
    - {x: 4.12903214, y: 2.06451607, z: 0}
    texelSize: {x: .0161290318, y: .0161290318}
    positions:
    - {x: -2.01612902, y: -.758064508, z: 0}
    - {x: 1.95161283, y: -.758064508, z: 0}
    - {x: -2.01612902, y: 1.03225803, z: 0}
    - {x: 1.95161283, y: 1.03225803, z: 0}
    normals: []
    tangents: []
    uvs:
    - {x: .460939467, y: .273438483}
    - {x: .460939467, y: .513670921}
    - {x: .677732408, y: .273438483}
    - {x: .677732408, y: .513670921}
    indices: 000000000300000001000000020000000300000000000000
    material: {fileID: 2100000, guid: c63bd21103efe4ebeabdb9afac59e4f8, type: 2}
    materialId: 0
    sourceTextureGUID: 5bd239f269b214372bfb09e3e1a807ee
    extractRegion: 0
    regionX: 0
    regionY: 0
    regionW: 0
    regionH: 0
    flipped: 1
    complexGeometry: 0
    physicsEngine: 0
    colliderType: 0
    customColliders: []
    colliderVertices: []
    colliderIndicesFwd: 
    colliderIndicesBack: 
    colliderConvex: 0
    colliderSmoothSphereCollisions: 0
    polygonCollider2D: []
    edgeCollider2D: []
    attachPoints: []
  - name: SantaHat_4
    boundsData:
    - {x: 0, y: .04838714, z: 0}
    - {x: 3.74193549, y: 1.64516115, z: 0}
    untrimmedBoundsData:
    - {x: 0, y: 0, z: 0}
    - {x: 4.51612902, y: 2.16129017, z: 0}
    texelSize: {x: .0161290318, y: .0161290318}
    positions:
    - {x: -1.87096775, y: -.774193466, z: 0}
    - {x: 1.87096775, y: -.774193466, z: 0}
    - {x: -1.87096775, y: .870967746, z: 0}
    - {x: 1.87096775, y: .870967746, z: 0}
    normals: []
    tangents: []
    uvs:
    - {x: .685548842, y: .481446296}
    - {x: .685548842, y: .708006859}
    - {x: .884763658, y: .481446296}
    - {x: .884763658, y: .708006859}
    indices: 000000000300000001000000020000000300000000000000
    material: {fileID: 2100000, guid: c63bd21103efe4ebeabdb9afac59e4f8, type: 2}
    materialId: 0
    sourceTextureGUID: 69b07e0254b2c4128ac50bf2c3d17704
    extractRegion: 0
    regionX: 0
    regionY: 0
    regionW: 0
    regionH: 0
    flipped: 1
    complexGeometry: 0
    physicsEngine: 0
    colliderType: 0
    customColliders: []
    colliderVertices: []
    colliderIndicesFwd: 
    colliderIndicesBack: 
    colliderConvex: 0
    colliderSmoothSphereCollisions: 0
    polygonCollider2D: []
    edgeCollider2D: []
    attachPoints: []
  - name: SantaHat_7_8
    boundsData:
    - {x: -.0403226018, y: -.0887096524, z: 0}
    - {x: 3.91935492, y: 1.9193548, z: 0}
    untrimmedBoundsData:
    - {x: 0, y: 0, z: 0}
    - {x: 4.12903214, y: 2.16129017, z: 0}
    texelSize: {x: .0161290318, y: .0161290318}
    positions:
    - {x: -2, y: -1.04838705, z: 0}
    - {x: 1.9193548, y: -1.04838705, z: 0}
    - {x: -2, y: .870967746, z: 0}
    - {x: 1.9193548, y: .870967746, z: 0}
    normals: []
    tangents: []
    uvs:
    - {x: .751955092, y: .00195410149}
    - {x: .751955092, y: .239256829}
    - {x: .984373033, y: .00195410149}
    - {x: .984373033, y: .239256829}
    indices: 000000000300000001000000020000000300000000000000
    material: {fileID: 2100000, guid: c63bd21103efe4ebeabdb9afac59e4f8, type: 2}
    materialId: 0
    sourceTextureGUID: 6fd23cb60938e4fcaac7e3dc7f208c93
    extractRegion: 0
    regionX: 0
    regionY: 0
    regionW: 0
    regionH: 0
    flipped: 1
    complexGeometry: 0
    physicsEngine: 0
    colliderType: 0
    customColliders: []
    colliderVertices: []
    colliderIndicesFwd: 
    colliderIndicesBack: 
    colliderConvex: 0
    colliderSmoothSphereCollisions: 0
    polygonCollider2D: []
    edgeCollider2D: []
    attachPoints: []
  - name: SantaHat_6
    boundsData:
    - {x: .0645161271, y: .0725806952, z: 0}
    - {x: 3.96774197, y: 2.62903214, z: 0}
    untrimmedBoundsData:
    - {x: 0, y: 0, z: 0}
    - {x: 4.51612902, y: 2.90322566, z: 0}
    texelSize: {x: .0161290318, y: .0161290318}
    positions:
    - {x: -1.9193548, y: -1.24193537, z: 0}
    - {x: 2.04838705, y: -1.24193537, z: 0}
    - {x: -1.9193548, y: 1.38709676, z: 0}
    - {x: 2.04838705, y: 1.38709676, z: 0}
    normals: []
    tangents: []
    uvs:
    - {x: .00390820298, y: .00195410149}
    - {x: .484373033, y: .00195410149}
    - {x: .00390820298, y: .161131829}
    - {x: .484373033, y: .161131829}
    indices: 000000000300000001000000020000000300000000000000
    material: {fileID: 2100000, guid: c63bd21103efe4ebeabdb9afac59e4f8, type: 2}
    materialId: 0
    sourceTextureGUID: 81107979c6ed54ebabf48ec3472d76f1
    extractRegion: 0
    regionX: 0
    regionY: 0
    regionW: 0
    regionH: 0
    flipped: 0
    complexGeometry: 0
    physicsEngine: 0
    colliderType: 0
    customColliders: []
    colliderVertices: []
    colliderIndicesFwd: 
    colliderIndicesBack: 
    colliderConvex: 0
    colliderSmoothSphereCollisions: 0
    polygonCollider2D: []
    edgeCollider2D: []
    attachPoints: []
  premultipliedAlpha: 0
  material: {fileID: 0}
  materials:
  - {fileID: 2100000, guid: c63bd21103efe4ebeabdb9afac59e4f8, type: 2}
  textures:
  - {fileID: 2800000, guid: 21d04beb0678a4df58ce4bb027d792c5, type: 3}
  pngTextures: []
  materialPngTextureId: 00000000
  textureFilterMode: 1
  textureMipMaps: 0
  allowMultipleAtlases: 0
  spriteCollectionGUID: 45c972aaa9e514a55ba21c6982a24569
  spriteCollectionName: ItemHeadSprites
  assetName: 
  loadable: 0
  invOrthoSize: 2
  halfTargetHeight: 31
  buildKey: 1702261710
  dataGuid: 3d47365d516eb4ffca336d0f3d3df9b8
  managedSpriteCollection: 0
  hasPlatformData: 0
  spriteCollectionPlatforms: []
  spriteCollectionPlatformGUIDs: []
--- !u!1001 &100100000
Prefab:
  m_ObjectHideFlags: 1
  serializedVersion: 2
  m_Modification:
    m_TransformParent: {fileID: 0}
    m_Modifications: []
    m_RemovedComponents: []
  m_ParentPrefab: {fileID: 0}
  m_RootGameObject: {fileID: 100000}
  m_IsPrefabParent: 1
  m_IsExploded: 1
